{
    "Title": "Your Book Title {Commit ID}",
    "Author": "Your Name",
    "Date": "{Commit Date}",
    "TOC": true,
    "TOC Depth": 2,
    "Source Directory": "_posts",
    "Output Directory": "_book",
    "Template Directory": "_templates",
    "Plugin Directory": "_plugins",
    "Input File Types": ["md", "docx"],
    "Output File Types": ["tex", "pdf", "html", "epub", "mobi"],
    "Pandoc Variables": {}
}
