{
    "Title": "Test",
    "Author": "Test",
    "Date": "Test",
    "TOC": true,
    "TOC Depth": 2,
    "Source Directory": "src",
    "Output Directory": "build",
    "Template Directory": "etc/templates",
    "Plugin Directory": "etc/plugins",
    "Input File Types": [
        "md"
    ],
    "Output File Types": [
        "pdf",
        "tex",
        "html",
        "epub",
        "docx"
    ],
    "Pandoc Variables": {}
}
